w271: Categorical, Time Series, and Panel Regression
…
- The estimated coefficients are not distinguishable from their true values

---
# Examine Results 

```r
ma_2_model_data <- ma_2_estimated_model %>% 
  augment()

ma_2_model_data %>% 
  select(value, .fitted, .resid)
```

```
## # A tsibble: 100 x 4 [1]
##      value .fitted   .resid index
##      <dbl>   <dbl>    <dbl> <dbl>
##  1 -0.551  -0.0180 -0.533       1
##  2 -1.99   -0.353  -1.64        2
##  3  0.519  -0.109   0.628       3
##  4  1.21    0.990   0.215       4
##  5 -0.0846 -0.0807 -0.00382     5
##  6  0.673   0.0536  0.619       6
##  7  2.22    0.476   1.74        7
##  8  2.49    0.689   1.80        8
##  9  0.199   0.129   0.0700      9
## 10  1.85   -0.561   2.41       10
## # … with 90 more rows
```
…
